Project 1 EDA
…
life %>% 
    group_by(Country) %>% 
    summarize(n = n(),
             avg_lifexp = mean(Life.expectancy),
             avg_infmort = mean(infant.deaths),
             avg_admort = mean(Adult.Mortality))

## `summarise()` ungrouping output (override with `.groups` argument)

## # A tibble: 193 x 5
##    Country                 n avg_lifexp avg_infmort avg_admort
##    <fct>               <int>      <dbl>       <dbl>      <dbl>
##  1 Afghanistan            16       58.2      78.2        269. 
##  2 Albania                16       75.2       0.688       45.1
##  3 Algeria                16       73.6      20.3        108. 
##  4 Angola                 16       49.0      83.8        329. 
##  5 Antigua and Barbuda    16       75.1       0          128. 
##  6 Argentina              16       75.2      10.1        106  
##  7 Armenia                16       73.4       1          117. 
##  8 Australia              16       81.8       1           63.2
##  9 Austria                16       81.5       0           65.8
## 10 Azerbaijan             16       70.7       6.06       115. 
## # ... with 183 more rows
…
